BOOBII, Expressa próximo ao Metro da Gameleira ,NOTIFICATION
OOOOBOOOOOOBOBOB, Foliões estão acessando a Guaicurus e deixando o trânsito lento na Contorno e Andradas sentido centro ,ALERT
OOOOOOOOOOOBIIOBIIIOBI, Trânsito bom e trechos com maior volume mas boa fluidez na Avenida Silva Lobo entre Barão H de Melo e Tereza Cristina ,NOTIFICATION
OOOOOBOO, Atualização Veiculo com defeito na Amazonas via liberada ,NOTIFICATION
OOOOBIOBOBIOBOOBOOOOOBI, Trânsito está lento na Teresa cristina sentido centro entre Santa Quitéria e Contorno e sentido Bairro com a alça para a Silva Lobo ,ALERT
OOOBIIOOOOOOOO, Trânsito bom na Avenida Afonso Pena e há trechos com maior volume mas fluindo ,NOTIFICATION
OOOBIIOOOOOOOO, Trânsito bom na Avenida do Contorno e há trechos com maior volume mas fluindo ,NOTIFICATION
OOOOOOOOOOOOOOOOOOO, Risco de chuva 20 a 40 mm raios e ventos até 50 km h Até de terça 16 site ,ALERT
OOOOOOOOOOOBOOO, Serviço especial para Atlético x Santa Fé dia 9 4 no Independência Saiba mais site ,NOTIFICATION
OOOOOBOBOOO, Veículo com problema mecânico na Bahia com Goitacazes Reboque BHTRANS empenhado ,ALERT
OOOBIIOOOOOOOO, Trânsito bom na Avenida Cristiano Machado e trechos com maior volume mas boa fluidez ,NOTIFICATION
OOOBIIOOOOOOOOOOBI, Trânsito bom na Avenida do Contorno e há trechos com maior volume mas fluindo principalmente no Santa Efigênia ,NOTIFICATION
OOBIIIOBOBOB, Retenção na N S do Carmo sentido centro entre Ponteio e Contorno ,INCIDENT
OOOBIIOOOOOOOO, Trânsito bom na Avenida do Contorno e há trechos com maior volume mas fluindo ,NOTIFICATION
OOOOBIOBOBIOB, Trânsito está lento na Cristiano Machado sentido centro entre José Cândido e Túnel ,ALERT
OOBIOBIIOOOB, Acidente na Cristiano Machado com Sebastião de Brito prejudica trânsito sentido centro ,INCIDENT
OOOBIIOBIIOBIIIOBIIOBII, Trânsito bom na Avenida Carlos Luz na Avenida Pedro II no Elevado Dona Helena Greco na Avenida Bias Fortes na Praça Raul Soares ,NOTIFICATION
OOOOOBIOOBIB, Queda de árvore bloqueia a Rua Calábria próximo à Rua Versília Bandeirantes ,INCIDENT
OOOBIIOOOOOOOOOOOBIOB, Trânsito bom na Avenida Cristiano Machado e há trechos com maior volume mas fluindo como próximo a Bernardo Vasconcelos sentido centro ,NOTIFICATION
OOOBIIIOBOB, Trânsito intenso na Nossa Senhora do Carmo com Colômbia sentido bairro ,ALERT
OOOBIIOOOOOOOOOBIIIOOBII, Trânsito bom na Avenida Pedro II e trechos com maior volume mas fluindo bom no Elevado D Helena Greco bom na Praça Raul Soares ,NOTIFICATION
OOOOOOOOBOOBOBIOBII, Trânsito bom com trechos intensos mas fluindo na Amazonas principalmente sentido bairro bom Via Expressa próximo Metro da Gameleira ,NOTIFICATION
OOOBOBOBIOBOOOBOOOOOOOBIOOB, Trânsito lento na Raja sentido centro entre César Campos e Contorno e intenso sentido bairro com maior fluxo de veículos próximo ao M Teresa e com Barão ,ALERT
OOOBOOOBOOBIOB, Trânsito intenso na Amazonas a partir da Barbacena até a Tereza Cristina sentido bairro ,ALERT
OOOOOOOOOBII, Trânsito bom em todas as vias e acessos do Complexo da Lagoinha ,NOTIFICATION
OOOOOBOBIIIIOBII, MANIFESTAÇÃO Manifestantes deslocam se pela Amazonas com Rua Rio Grande do Sul sentido Praça Raul Soares ,ALERT
OOOOBIOBOBOB, Trânsito está lento na Pedro I sentido centro entre Montese e Barragem ,ALERT
OOOOOOOBIIOBOOOOOOB, Atualização Liberada 2 faixas da direita da NS do Carmo sentido centro na pista externa na altura do Verdemar ,NOTIFICATION
OOOBIIOOOOOOOO, Trânsito bom na Avenida do Contorno e há trechos com maior volume mas fluindo ,NOTIFICATION
OOOOOOOOOOOOOOOOOOO, Ocorrência de chuva 20 a 40 mm raios e ventos até 40 km h Até de quinta 18 site ,ALERT
OOOOOBOBOBI, Veículo com problema mecânico na Bahia entre Tamoios e Afonso Pena ,ALERT
OOOOO,Bom dia Início das operações ,NOTIFICATION
OOOBIIOOOOOOOOOBIIIOBIII, Trânsito bom na NS do Carmo e trechos intensos mas fluindo bom no entorno da Praça M Goes Menicucci no trevo do BH Shopping ,NOTIFICATION
OOOBIIIOBOB, Trânsito intenso na Nossa Senhora do Carmo com Colômbia sentido bairro ,ALERT
BIIOOOBI, Curva do Ponteio com reflexos na R Patagônia ,ALERT
OOOBIIOOOOOOOOOOOBIIIOBII, Trânsito bom na Avenida Pedro II e há trechos com maior volume mas boa fluidez bom no Elevado D Helena Greco na Praça Raul Soares ,NOTIFICATION
OOBIOBOBOBOOBOBOBI, Lentidão na Afonso Pena sentido Mangabeiras entre Caetés e Tamoios e na Bahia entre Caetés e Afonso Pena ,NOTIFICATION
OOBIOBOBOOOOO, Acidente na Afonso Pena com tupinambás sentido Rodoviária Trânsito está lento no local ,INCIDENT
OOOOOOBIBIOOOBIOOOOOOO, Árvore de grande porte caída na BR 262 Anel Rod próximo à PUC São Gabriel pista obstruída Risco de colisões 1 viatura ,INCIDENT
OOOBIIOOOOOOOOBOO, Trânsito bom na Avenida Cristiano Machado e trechos com maior volume principalmente no sentido bairro mas fluindo ,NOTIFICATION
OOOBIOO,Atualização Acidente no Viaduto Leste via liberada,NOTIFICATION
OOBIIIOBIIOOOBI,Acidente na Rio Grande do Sul com Augusto de Lima prejudica trânsito no Barro Preto ,INCIDENT
OOBIIOBOOBIOOOOOOB, fluindo entre Praça Raul Soares e Expominas Bom na Via Expressa próximo a Estação do Metrô da Gameleira ,NOTIFICATION
OOBOOBIOOOB, Manifestação na Amazonas altura do Cefet I causa lentidão sentido centro ,ALERT
OOBOBOB, Lentidão na Contorno com Raja sentido Savassi ,ALERT
OOOBIOOOOOOOO, Trânsito bom na Cristiano Machado e há trechos com maior volume mas fluindo ,NOTIFICATION
OOOOOO, Bom dia Início das operações do ,NOTIFICATION
OOOOBII, Trânsito está bom na Barragem da Pampulha ,NOTIFICATION
OOOOOOOOOOOOBIOBOOOOBIIII, Trânsito bom e trecho maior volume mas fluindo na pista mista da Carlos Luz sentido bairro a partir do acesso R C do Mato Dentro ,NOTIFICATION
OOOBIIOOOOOOOO, Trânsito bom na Avenida Raja Gabaglia e há trechos com maior volume mas fluindo ,NOTIFICATION
OOOBIIOOOOOOOBOBIIOO, Trânsito bom na Avenida Cristiano Machado e trechos com maior volume principalmente sentido bairro próximo Sebastião de Brito mas fluindo ,NOTIFICATION
OOOOOOOBIIOBIIOBI, Atualização Manifestantes em movimento se deslocam da Praça Afonso Arinos para Avenida Afonso Pena sentido Praça Sete ,ALERT
OOOOBI, Trânsito está bom na Antônio Carlos ,NOTIFICATION
OOOOBIOOBII, Trânsito fluindo bem na Cristiano Machado e no Complexo da Lagoinha ,NOTIFICATION
OOBIIIOBIOOBIIIOBOOO, Acidente na Nossa Senhora de Fátima com Padre Eustáquio sobre o Elevado Dona Helena Greco sentido bairro SAMU no local ,INCIDENT
OOOOBIIOBOOOOB, Trânsito está lento na rua Santos Dumont com Curitiba refletindo no entorno da rodoviária ,ALERT
OOOBIIOOOOOOOOOBIOBIII, Trânsito bom na Avenida Silva Lobo e trechos com maior volume mas boa fluidez entre Tereza Cristina e Barão H de Melo ,NOTIFICATION
OOOOOBIOOBIIOB, MANIFESTAÇÃO Manifestantes deslocam se da Praça Sete para a Praça da Estação pela Amazonas ,ALERT
BOOOBIIIOOOOOBOBIIOBOOO, bairro a partir do Viaduto da Silva Lobo Trânsito intenso mas fluindo sentido centro entre Praça da CEMIG e Anel e bom com ,ALERT
OOOBOOOOOOOOOBOBIOOB, Trânsito bom na Amazonas e trechos com maior volume mas fluindo principalmente sentido bairro bom Via Expressa próximo Metro Gameleira ,NOTIFICATION
OOOOOOOOOOOOOOOOBO,Confira as operações especiais de trânsito e transportes para o Carnaval 2016 em diferentes regiões de BH site ,NOTIFICATION
OOOOOBIIIOOOOOOO, MANIFESTAÇÃO Manifestantes estão frente ao Pronto Socorro Risoleta Neves no momento parados da faixa da esquerda ,ALERT
OOOOOOOOOOOBOO, Operação especial para o Cruzeiro x Mineros dia 8 4 no Mineirão Confira site ,NOTIFICATION
OOOOBOBIOOOBOB, Trânsito está lento na Contorno com Viaduto leste devido obra na Guaicurus com Bahia ,ALERT
OOOOB, Trânsito intenso próximo à Rodoviária ,ALERT
OOOBOBOBIIOB, Trânsito intenso na Barão sentido bairro entre Onze de Agosto e Raja ,ALERT
OOOOOOBOBIOOOOB, ATUALIZAÇÃO Via liberada no acidente na Amazonas com Turfa Prado faixa da esquerda sentido bairro ,NOTIFICATION
OOOBIIOOOOOOO, Trânsito bom na Avenida Raja Gabaglia e trechos com maior volume mas fluindo ,NOTIFICATION
OOBIOBOBIOB, Lentidão da Cristiano Machado sentido centro entre Jacuí Ipiranga e Túnel ,ALERT
OOOOOOOBIIOBIOBOOOO, Queda de árvore de médio porte na Saturnino de Brito entre Rio Branco e Oiapoque Trânsito em 1 faixa ,INCIDENT
OOOOBIOBOBIOBOOBOOOOOBI, Trânsito está lento na Teresa Cristina sentido centro entre Est Calafate e Contorno e sentido bairro com a alça para a Silva Lobo ,ALERT
OOOBIIIOOOOOOOOOBIIIOBIII, Trânsito bom na Avenida NS do Carmo trechos maior volume mas fluindo bom no entorno da Praça M Goes Menicucci no Trevo do BH Shopping ,NOTIFICATION
OOOBIIIOOOOOOOOOBIIIOBIII, Trânsito bom na Avenida NS do Carmo trechos maior volume mas fluindo bom no entorno da Praça M Goes Menicucci no Trevo do BH Shopping ,NOTIFICATION
OOOOOOOOOOOOOOOOOOOOOOO, Acréscimo de 20 a 30mm do alerta emitido totalizando 70mm até de terça 24 raios e rajadas vento de até 50 km h ,ALERT
OOOOOBIOOBOB, Veículo com problema mecânico na Cristiano Machado após a Vilarinho sentido bairro ,ALERT
OOOOOOOOOOOOOOOO, Operação pré carnaval 2016 na Regional Oeste a partir de domingo dia 31 1 Confira site ,NOTIFICATION
OOOBIIOOOOOOOOO, Trânsito bom na Avenida Cristiano Machado e há trechos com maior volume mas boa fluidez ,NOTIFICATION
OOOOOOOO, Boa noite Final das operações do Twitter BHTRANS ,NOTIFICATION
OOOOOBIOOOOOOOBOB, Trânsito intenso mas fluindo na Cristiano Machado com maior fluxo de veículos próximo ao Túnel sentido centro ,ALERT
OOOBIIOOOOOOOOOBIIIOBII, Trânsito bom na NS do Carmo e trechos intensos mas fluindo bom no entorno da Praça M Goes Menicucci no Trevo BH Shopping ,NOTIFICATION
OOOOOOOOOBOBIOBOO,Obra da Sudecap para requalificação da rede fluvial na Guaicurus entre São paulo e Curitiba Trânsito lento ,ALERT
OOOBOOOOOOOOOBOBIOOB, Trânsito bom na Amazonas e trechos com maior volume mas fluindo principalmente sentido bairro bom Via Expressa próximo Metro Gameleira ,NOTIFICATION
OOOBIIOBIIIOBI, Trânsito bom na Avenida Silva Lobo entre Barão H de Melo e Tereza Cristina ,NOTIFICATION
BOOOOOOOOBOBIOBI, Amazonas fluindo bem com maior fluxo de veículos entre Caetés e Afonso Pena sentido Raul Soares ,NOTIFICATION
OOOBII, Trânsito bom na Avenida Raja Gabaglia ,NOTIFICATION
OOOBIIIOBIOOOO, Foliões invadiram a Rio Grande do Norte com Getúlio Vargas Trânsito impedido no local ,ALERT
OOOBIIOOOOOOO, Trânsito bom na Avenida Raja Gabaglia e trechos com maior volume mas fluindo ,NOTIFICATION
OOOBOOOOOOOOOOOOOO, Operação especial na rodoviária TERGIP de 5 2 a 13 2 para o feriado do Carnaval 2016 site ,NOTIFICATION
OOBIIOOOOOOO, Trânsito bom Avenida Cristiano Machado e trechos com maior volume mas fluindo ,NOTIFICATION
OOOBOOBIOBOOBIIOOOOOOO, Atualização Acidente na Amazonas após o Silva Lobo sentido bairro retenção próximo Praça Raul Soares Trânsito em 2 faixas SAMU no local ,INCIDENT
OOOOOOOOOOBIOOBIOB, Boa Tarde Segundo informação do SAMU há um acidente na Pedro II com a Carlos Luz sentido bairro ,INCIDENT
OOBIOOOOOOOOBOOBIIII, Trânsito bom Cristiano Machado e há trechos intensos mas fluindo principalmente sentido bairro e entre B Vasconcelos S de Brito ,NOTIFICATION
OOOOOOOBIIIOBOOOOBIOOOO, Veículo com problema mecânico na saída do Elevado D Helena Greco sentido bairro próximo ao acesso da Pedro II na faixa da direita ,ALERT
OOBIOOOBOBIOOOOBII, Trânsito do Bairro Floresta foi desviado pela Itajubá e Francisco Sales até a liberação do Viaduto do Floresta ,ALERT
OOOBIOOOBIOB, Trânsito intenso na Bias Fortes a partir da Espírito Santo sentido centro ,ALERT
OOOBIIOBOB, Trânsito intenso no Viaduto B Leste e Oeste sentido centro ,ALERT
OOOBOBOBIOB, Trânsito intenso na Amazonas entre Barbacena e Tereza Cristina sentido bairro ,ALERT
OOOBIOBIOB,Trânsito intenso na Teresa Cristina com Juscelino Kubitscheck sentido bairro,ALERT
OOOBIIIOOOOOOOOOBIIIOBIII, Trânsito bom na Avenida NS do Carmo trechos maior volume mas fluindo bom no entorno da Praça M Goes Menicucci no Trevo do BH Shopping ,NOTIFICATION
OOOBII, Trânsito bom na Avenida Raja Gabaglia ,NOTIFICATION
OOBOOOOOOOOOB, Manifestação na Andradas altura do número 3100 Trânsito intenso mas fluindo sentido bairro ,ALERT
OOOBIOOOOOOOOBIIOB, Trânsito bom na Afonso Pena trechos com maior volume mas fluindo principalmente entre Carandaí Bernardo Monteiro sentido Rodoviária ,NOTIFICATION
OOOOBIIIOBIIOBBI, ATUALIZAÇÃO Via liberada na Rio Grande do Sul entre Augusto de Lima e Amazonas Barro preto ,NOTIFICATION
OOBOOBIIOB, Acidente na Amazonas antes da Conde Pereira Carneiro sentido bairro ,INCIDENT
OOOOOOOOOOOOO, Boa Tarde Início das operações Pedimos desculpas mas por problemas técnicos estávamos inoperantes ,NOTIFICATION
OOOOBIOBIOOB, Trânsito está intenso na Bias Fortes e Cristóvão Colombo no sentido bairro ,ALERT
OOBOBOOOOBI, Acidente na Andradas com Caetés faixa da esquerda sentido Parque Municipal ,INCIDENT
OOOOBOBIOOOBIOOOOBIOB, Trânsito está retido na Contorno com Tereza Cristina nos dois sentidos Tereza Cristina está retida até a Via Expressa sentido bairro ,INCIDENT
OOOBIIOOOOOOOBOBIOO, Trânsito bom na Avenida Cristiano Machado e trechos maior volume principalmente no sentido bairro após Bernardo Vasconcelos mas fluindo ,NOTIFICATION
OOOOOOOOOOBOOOO,Participe da 5ª Reunião do Observatório da Mobilidade Urbana de BH Inscrições pelo link site ,NOTIFICATION
OOOOOOBIIIIIOOBI, Trânsito está lento na saída da Trincheira da Rio grande do Norte altura do Colégio Marista ,ALERT
OOOOBOOOOOOOBOBOBII, Trânsito fluindo bem na Amazonas com maior fluxo de veículos entre a Tupis e Caetés sentido Praça Raul Soares ,NOTIFICATION
OOBIOOBOOOBI, Acidente na Silviano Brandão próximo a Andradas prejudica trânsito sentido Cristiano machado ,INCIDENT
OOOOOOBOBIOB, ATUALIZAÇÃO Via liberada no acidente na Andradas com Assis Chateaubriand sentido centro ,NOTIFICATION
OOOOOOOOOOOOBIOBOOOOBIIII, Trânsito bom e trechos grande volume mas fluindo na pista mista da Carlos Luz sentido bairro a partir do acesso R C do Mato Dentro ,NOTIFICATION
OOOOOBI, Bloco Baianas Ozadas atravessando a Afonso Pena ,ALERT
OOOOOBIOBIOOOOO, Manifestação Manifestantes em deslocamento entre Praça Tiradentes para Praça Sete ocupam 2 faixas da via ,ALERT
OOOBIOOOOOOOOOBIOOBIIII, Trânsito bom na Avenida Amazonas e trechos com maior volume mas fluindo bom na Via Expressa próximo a Estação do Metro da Gameleira ,NOTIFICATION
OOOOOBOO, maior volume mas fluindo sentido bairro no trecho ,NOTIFICATION
OOOOOOOOBOOOOOOOOOBOO, Será disponibilizado o serviço da linha 55 MOVE Mineirão para jogo Cruzeiro X Tupi domingo 14 2 no Mineirão Confira site ,NOTIFICATION
OOOOOOOOOOOOOOOOOOO, Boa Tarde O Quadro de Horários de segunda feira corresponde ao de dia atípico e terça ao de feriado ,NOTIFICATION
OOOBOOOBOB, ATUALIZAÇÃO Retenção na Amazonas até próximo ao Expominas sentido bairro ,INCIDENT
OOOOBIOOBIIIOB, ATUALIZAÇÃO Via liberada na Pedro II antes do Viaduto Dona Helena Greco sentido centro ,NOTIFICATION
OOOOBIOOOBOB, Trânsito está lento na Pedro II a partir da Catalão sentido centro ,ALERT
OOOOBOBOBIOB, Trânsito está lento na Raja sentido bairro entre Círculo Militar e Contorno ,ALERT
OOBIOBOBOOOOOO, Acidente na Cristiano Machado com Vilarinho sentido bairro Trânsito está retido nos dois sentidos ,INCIDENT
OOOBIIIOOOOOBOBOBII, Trânsito intenso na Nossa Senhora do Carmo com trecho de lentidão sentido centro entre Ponteio e Trevo do Belvedere ,ALERT
OOOOBI, Trânsito fluindo bem na Pedro II ,NOTIFICATION
OOOOBIOOBIOBOOOBIOOOO,Carreta com defeito na Alípio Goulart entre a Desenbargador Matos e Capivari Em frente ao Hospital Evangelico prejudica trânsito no local,INCIDENT
OOOBIIIOB, Trânsito intenso no Viaduto Dona Helena Greco sentido bairro ,ALERT
OOBIIOOOOOOOOOOBIIOOOBIII, Trânsito bom NS do Carmo e trechos com maior volume mas boa fluidez bom no trevo BH Shopping no entorno da Praça M Goes Menicucci ,NOTIFICATION
OOOOOOOOOOOOOOOOO, Não seja uma carta fora do baralho Evite acidentes Mantenha uma distância segura dos outros veículos site ,NOTIFICATION
OOOOBIOOOOOOBIOBOOOO, CORREÇÃO Em toda região Centro Sul acontecem concentrações de blocos Nesse momento Afonso Pena e Pampulha estão com boa fluidez,NOTIFICATION
OOOBIOBIIOO, Atualização Acidente na Antônio Carlos com Viaduto São Francisco via liberada ,INCIDENT
OOOOOBIBIBBBIIBIOBII, Trânsito lento na região do bairro Floresta Pouso Alegre Itajubá Contorno Viaduto do Floresta Silviano Brandão e Flávio dos Santos ,ALERT
OOOBIOBIOBIIOB, Trânsito intenso na Bias Fortes entre Álvares Cabral e Praça Raul Soares sentido centro ,ALERT
OOOBIOB, Trânsito lento no Viaduto Leste sentido centro ,ALERT
OOBIIOBI,Lentidão na Luiz Paulo Franco sentido BH Shopping ,ALERT
OOOBOBI, Trânsito intenso na Contorno com Tereza Cristina ,ALERT
OOOBIIIOOOOOOOOOBIIIOIIII, Trânsito bom na Avenida NS do Carmo trechos maior volume mas fluindo bom no entorno da Praça M Goes Menicucci no Trevo do BH Shopping ,NOTIFICATION
OOOOBOOBIOB, Trânsito está retido na Andradas altura do Parque Municipal sentido Rodoviária ,INCIDENT
OOOOBIIOOBIOBBOB, Trânsito está lento no Viaduto do Floresta e na Pouso Alegre e Jacuí Floresta sentido centro ,ALERT
OOOBII, Trânsito bom na Avenida Afonso Pena ,NOTIFICATION
OOOBII, Trânsito bom na Avenida Afonso Pena ,NOTIFICATION
OOOBIIOOOOOOOO, Trânsito bom na Avenida Raja Gabaglia e há trechos com maior volume mas fluindo ,NOTIFICATION
OOBIIIOOOOOOOOOBIIOOOBIII, Trânsito bom Avenida NS do Carmo e trechos com maior volume mas fluindo bom no trevo BH Shopping no entorno da Praça M Goes Menicucci ,NOTIFICATION
OOOOBIIIOOOOB, ATUALIZAÇÃO Via liberada na Nossa Senhora do Carmo após a passarela sentido bairro ,NOTIFICATION
OOOOBIOBII, Trânsito está bom na Olegário Maciel sentido Praça da Assembléia ,NOTIFICATION
OOOOBIIBIOBIOOOOOOOOO, Criação da Linha 825 Estação São Gabriel Vitória II via UPA Nordeste a partir de domingo dia 21 2 Confira site ,NOTIFICATION
OOBIIIOOBOOOOOOOOOB, Acidente na Nossa Senhora do Carmo altura do Verdemar ocupa a faixa da direita e prejudica trânsito sentido centro ,INCIDENT
OOOOOOOO, Boa noite Final das operações do Twitter BHTRANS ,NOTIFICATION
OOOBIIOOOOOOO, Trânsito bom na Avenida do Contorno e trechos com maior volume mas fluindo ,NOTIFICATION
OOOOBIII, Trânsito fluindo bem na N S do Carmo ,NOTIFICATION
OOOBIOBOOBIIIOOBIOBI, Trânsito intenso na Carlos Luz sentido centro com a Conceição do Mato Dentro e entre Rosinha Sigaud e Pedro II ,ALERT
OOOOBIIOOOOOOOOOBIIIOIIII, Trânsito bom na Avenida NS do Carmo trechos maior volume boa fluidez bom no entorno da Praça M Goes Menicucci no Trevo do BH Shopping ,NOTIFICATION
OOOBIIIOOOOOOOOOBIIIOBIII, Trânsito bom na Avenida NS do Carmo trechos maior volume mas fluindo bom no entorno da Praça M Goes Menicucci no Trevo do BH Shopping ,NOTIFICATION
OOOOOBIBIBIIOOOOOB, Árvore caída em via pública R Aimorés Avenida Amazonas B Barro preto Sem vítimas Pista interditada sentido Centro ,INCIDENT
OOOOOOBBIOBIOB, Trânsito está lento na região da Rodoviária Espírito Santo entre Afonso Pena e Contorno ,ALERT
OOOOOOOOOOOOOOOO, Novos itinerários das linhas 3501A 3501B 3502 e 3503A a partir de sábado 11 4 site ,NOTIFICATION
OOOBIIOBIIOBIIIOBIIOBII, Trânsito bom na Avenida Carlos Luz na Avenida Pedro II no Elevado D Helena Greco na Avenida Bias Fortes na Praça Raul Soares ,NOTIFICATION
OOOOBOBOBIIOB, Trânsito está lento na Raja sentido centro entre H Madre teresa e Contorno ,ALERT
OOOOBIIIOBOBOBII, Trânsito está lento na Nossa Senhora do Carmo sentido centro entre Ponteio e Trevo do Belvedere ,ALERT
OOBOBOBOBII, Lentidão na Barão sentido Raja entre Tibiriçá e Virgílio José Batista ,ALERT
OOOBIIOOOOOOOO, Trânsito bom na Avenida do Contorno e há trechos com maior volume mas fluindo ,NOTIFICATION
OOOOOOOOOBOOOOOO, Serviço especial para o jogo América X Democrata no Independência dia 5 4 Saiba mais site ,NOTIFICATION
OOOBIOOOBOOBIIIOB, Trânsito intenso na Raja Gabaglia a partir da ETNA até a Barão Homem de Melo sentido bairro ,ALERT
OOOOOOOOBIIOBOBBI, Trânsito intenso mas fluindo com grande volume na Avenida Tereza Cristina sentido bairro entre Contorno Rotatória JK ,ALERT
OOOBIIIOBOBOBOB, Trânsito intenso na Nossa Senhora do Carmo entre Contorno e Colômbia sentido bairro sentido bairro ,ALERT
OOOBIOO, Atualização Acidente na Teresa Cristina Via liberada ,NOTIFICATION
OOOOOOOOOOOOOOOO, Operação para evento Carnaval 2016 na Regional Nordeste a partir de 5 2 Saiba mais site ,NOTIFICATION
OOOOBIOBOOOB,Caminhão com defeito na Teresa Cristina com Contorno prejudica trânsito sentido bairro ,INCIDENT
OOOBIOOOOOOOOOOBIOOBIIII, Trânsito bom na Avenida Amazonas e trechos com maior volume mas boa fluidez bom na Via Expressa próximo a Estação do Metro da Gameleira ,NOTIFICATION
OOOBIOOOOOOOOOOBIOOBII, Trânsito bom na Avenida Amazonas e trechos com maior volume mas boa fluidez bom na Via Expressa próximo ao Metrô da Gameleira ,NOTIFICATION
OOOBIOBII, Trânsito intenso no Viaduto Oeste sentido Túnel da Lagoinha ,ALERT
OOOOO,Bom dia Início das operações ,NOTIFICATION
OOOBIIOOOOOOOOOOOBIOOO, Trânsito bom na Avenida Cristiano Machado e trechos com maior volume mas fluindo exceto para acesso a R Pitangui com trânsito lento ,NOTIFICATION
OOOOOOOOOOBIBIBIBIBOBII, Participantes do Evento Dia Nac da Luta Antimanicomial deslocam pela J Pinheiro Ál Cabral Af Pena Esp Santo Tupinambás e Praça da Estação ,ALERT
OOBOBOBIOOBOB, Retenção na Bahia entre Caetés e Afonso Pena refletindo na Andradas com Tamoios ,INCIDENT
OOOOBOOBIOOBIIIOB, Trânsito está retido na Amazonas entre o Anel Rodoviário e a Oscar Negrão de Lima sentido bairro ,INCIDENT
OOOBIOBOB, Trânsito intenso na Tereza Cristina com Contorno sentido bairro ,ALERT
OOOBIIOOOOOOOOOOOOBIIII, Trânsito bom na Avenida Raja Gabaglia e trechos com maior volume mas fluindo a partir do acesso da Avenida Barão H de Melo ,NOTIFICATION
OOOOOOOOOBII, Trânsito bom em todas as vias e acessos do Complexo da Lagoinha ,NOTIFICATION
OOOBIIIOOOOOBIIOBIIOB, Trânsito intenso na Nossa Senhora do Carmo com trecho de lentidão entre Curva do Ponteio e Trevo do Belvedere sentido centro ,ALERT
OOOBIOBOOOOOOOBIOBIIOOOBIOOB,Trânsito intenso na Cristiano Machado sentido centro com maior fluxo de veículos entre a W Lobo e S de Brito e entre a S Brandão e o Túnel,ALERT
OOOOBIBIOBIOOOOOOOB, Trânsito fluindo bem na Cristiano Machado Pedro I e Antônio Carlos com maior fluxo de veículos próximo a UFMG ,NOTIFICATION
OOOBOBOBI, Trânsito intenso na Andradas com Caetés sentido Área Hospitalar ,ALERT
OOOBIIIOBOB, Trânsito intenso na Nossa Senhora do Carmo com Colômbia sentido bairro ,ALERT
OOOOBOBOBIIOB, Trânsito está lento na Amazonas sentido centro entre Conde Pereira Carneiro e Contorno ,ALERT
OOOOOOBI, Trânsito está com boa fluidez na Cristiano Machado ,NOTIFICATION
OOOOOBIOBIIBIOOOOOOB, MANIFESTAÇÃO Manifestantes deslocam se pela Mato Grosso com Augusto de Lima Barro Preto ocupando a faixa da direita sentido centro ,ALERT
OOOOOOOOOBII, Trânsito bom em todas as vias e acessos do Complexo da Lagoinha ,NOTIFICATION
OOOBIIOOOBIIOBIIOBII, Trânsito bom na Avenida Cristóvão Colombo no entorno da Praça da Liberdade na Avenida Bias Fortes na Praça Raul Soares ,NOTIFICATION
OOOOBIBIIOB, MANIFESTAÇÃO Manifestantes fecharam a João Pinheiro Praça Afonso Arinos sentido bairro ,ALERT
OOOOBOBOBOBI, Trânsito está lento na Raja sentido centro entre Barão e BH Shopping ,ALERT
OOOOOOOBIBIIOOOBOOOBIBI, Essa linha tem ponto final atrás do Del Rey Avenida Del Rey e cruza a Amazonas na altura do CEFET I Nova Suíssa ,NOTIFICATION
OOOOOOBIIOOOOOO,Regional Norte Alteração de circulação no bairro Monte Azul a partir de 8 4 site ,NOTIFICATION
OOOOOOOOOOOOOOBOBOOOO,Em função de obras de recapeamento e nivelamento de pita será realizada interdição da Contorno com Curitiba dia 23 1 site ,INCIDENT
OOOBIIOOOOOOOO, Trânsito bom na Avenida do Contorno e trechos com maior volume mas boa fluidez ,NOTIFICATION
OOOOOOOO, Final das operações do Twitter BHTRANS Retornaremos Segunda,NOTIFICATION
OBOOOOOOOOOOOOOO, RETIFICAÇÃO BR040 negociação ficou decidido pistas principais ficarão liberadas por 30 min e depois serão fechadas ,INCIDENT
OOOBOBIOBIIOOBIOBOBI, Trânsito liberado na Andradas com Contorno Perrela sentido Praça da Estação Desvio para área central pela Carijós e Espírito Santo ,NOTIFICATION
OOOOBOOOBIOOBIIOB, Trânsito está retido na Andradas a partir da Francisco Sales até o Viaduto do Floresta sentido Rodoviária ,INCIDENT
OOOBIIOOOBIIOBIIOBII, Trânsito bom na Avenida Cristóvão Colombo no entorno da Praça da Liberdade na Avenida Bias Fortes na Praça Raul Soares ,NOTIFICATION
OOOOBIIBIOBIOOOOOOOOO, Criação da Linha 825 Estação São Gabriel Vitória II via UPA Nordeste a partir de domingo dia 21 2 Confira site ,NOTIFICATION
OOOOOOOO, Boa noite Final das operações do Twitter BHTRANS ,NOTIFICATION
OOOBII, Trânsito bom na Avenida Raja Gabaglia ,NOTIFICATION
OOOOOOOOOBII, Trânsito bom em todas as vias e acessos do Complexo da Lagoinha ,NOTIFICATION
OOBIOBOBIOB, Lentidão na Pedro I sentido centro entre João Samaha e Barragem ,ALERT
OOOBIOOOOOOOOOOOOO, Operação especial na rodoviária TERGIP de 5 2 a 13 2 para o feriado do Carnaval 2016 site ,NOTIFICATION
OOOBIOBOBIOBII, Trânsito intenso na Cristiano Machado sentido centro entre W Lobo e S de Brito ,ALERT
OOOOOOOOOBOOO, risco de chuva moderada raios ventos e trovoadas na RMBH nas próximo site ,ALERT
OOOBIOBIIOOBOB, Trânsito fechado na Cristóvão Colombo com Praça da Liberdade Desvio pela Brasil e Sergipe ,INCIDENT
OOBIOBIIBOB, Acidente na Raja Gabaglia com Marcelo Roberto Linhares Etna sentido bairro ,INCIDENT
OOBIIIIOOOBIOOOOOOOOO, Interdições na Avenida Heráclito Mourão de Miranda para obras do Córrego Ressaca a partir de 10 12 Saiba mais aqui site ,INCIDENT
OOOOOOOOOO, Registre por gentileza esta ocorrência em nosso Fale Conosco site ,NOTIFICATION
OOOOOOBIIIBI, ATUALIZAÇÃO Via liberada no acidente na Avenida Juscelino Kubitschek 6001 Santa Maria ,NOTIFICATION
OOOOBIIIOBOBOBIIOOOOBOOOO, Trânsito está lento na N S do Carmo sentido centro entre Ponteio e Trevo do Belvedere e intenso com a Contorno em ambos os sentidos ,ALERT
OOOOOBII, Trânsito intenso nas imediações da Praça da Estação ,ALERT
OOOBIIIOO,Atualização Acidente na Nossa Senhora do Carmo via liberada ,INCIDENT
OOOOOOOOOOO,Boa tarde segue o link do Fale Conosco do Portal site ,NOTIFICATION
OOOOOOB, Trânsito fluindo bem no entorno da Rodoviária ,NOTIFICATION
OOOOBOBOBIOB, Trânsito está lento na Raja sentido centro entre Josafá Belo e Contorno ,ALERT
OOOBIIOOOOOOOO, Trânsito bom na Avenida do Contorno e há trechos com maior volume mas fluindo ,NOTIFICATION
OOOBIOBIIIOB, Trânsito intenso na Pedro II com Viaduto Dona Helena Greco sentido bairro ,ALERT
OOOOBOOBIOB, Trânsito está lento na Amazonas com o Anel Rodoviário sentido bairro ,ALERT
OOOBIOOOBIOB, Trânsito fechado na Afonso Pena a partir da Professor Moraes sentido bairro ,INCIDENT
OOOOOOOOOOOOOOOBO, Serviço especial da linha 9033 para o jogo Atlético X Boa Esporte 21 2 no Independência site ,NOTIFICATION
OOOBOBOOO, Trânsito bom na Amazonas com Contorno nos dois sentidos ,NOTIFICATION
OOOOOOOOO, Está no carro e começou a chover forte site ,NOTIFICATION
OOOBII, Trânsito bom na Avenida do Contorno ,NOTIFICATION
OOOOBIOBOBOBOOBOOOOBI, Trânsito está lento na Teresa Cristina sentido centro entre Ingaí e Contorno e sentido bairro na alça para a Silva Lobo ,ALERT
OOOOBIII, Trânsito está bom no Viaduto Dona Helena Greco ,NOTIFICATION
OOOOOO, Final das operações do Twitter BHTRANS ,NOTIFICATION
OOOOBIOBIOOOOOOOO, Interdição do acesso ao Viaduto Leste via Cristiano Machado dias 20 e 21 2 Saiba mais site ,INCIDENT
OOOOOBOBIBIOB, Veículo com problema mecânico na Vilarinho com Edgar Torres Venda Nova sentido bairro ,ALERT
OOOBIII, Trânsito bom no trevo do BH Shopping ,NOTIFICATION
OOOBII, Trânsito bom na Avenida do Contorno ,NOTIFICATION
OOOBIIOOOOOOOOOBIOBIII, Trânsito bom na Avenida Silva Lobo e trechos com maior volume mas boa fluidez entre Tereza Cristina e Barão H de Melo ,NOTIFICATION
OOOOBIIBIOBIOOOOOOOOO, Criação da Linha 825 Estação São Gabriel Vitória II via UPA Nordeste a partir de domingo dia 21 2 Confira site ,NOTIFICATION
OOOOOBIOBIIIOOOB, 09n20 Veículo com defeito na Bias fortes com Elevado Dona Helena Greco prejudica trânsito sentido centro ,ALERT
OOBOOOBIIOOOOOOBI, fluindo Sentido centro retido próximo a Praça Raul Soares e manifestantes se deslocam sentido a Praça Sete ,NOTIFICATION
OOOOOOBIIIOOBIIOOOOBII, ATUALIZAÇÃO Via liberada no acidente na Nossa Senhora do Carmo com o Trevo do Belvedere faixa de acesso à Professor Rodrigues Seabra ,NOTIFICATION
OOOOOOOOOOOOBOBIOOOBOBII, Uma queda de árvore ocorrida ontem 11 03 atingiu o semáforo da Ivaí com Abílio Machado Desvio no sentido bairro pela Itobi do Oeste ,INCIDENT
OOOBIOOOOOOOOOOOB, Trânsito bom na Cristiano Machado e há trechos com grande volume mas fluindo principalmente no sentido bairro ,NOTIFICATION
OOOBOOOOOOOOOBOBIOOB, Trânsito bom na Amazonas e há trechos maior volume mas fluindo principalmente sentido bairro bom Via Expressa próximo Metro Gameleira ,NOTIFICATION
OOOOBOBOB, Trânsito está lento na Amazonas com Anel sentido bairro ,ALERT
OOOOOBIOBIIIOB, Veículo com problema mecânico na Tereza Cristina com Viaduto José Viola Calafate sentido bairro ,ALERT
OOOOBIOBOBIOBOOBIOOOB, Trânsito está lento na Pedro I sentido centro entre João Samaha e Barragem e na Antônio Carlos na altura da UFMG ,ALERT
OOOBOBOOBOB, Atualização Retenção na Raja sentido bairro refletindo na Contorno sentido Savassi ,INCIDENT
OOOOBIOBIIOB, Trânsito está lento na Cristiano Machado com Sebastião de Brito sentido bairro ,ALERT
OOOBIIOOBIIOOOOOOOO, Atualização manifestantes na R da Bahia próximo à R Bernardo Guimarães ocupam 1 faixa sem causar prejuízos ao trânsito ,ALERT
OOOBIOOBIOBIIBIOBI, Trânsito intenso na Silviano Brandão entre a Conselheiro Lafaiete e Genoveva de Souza Sagrada Família sentido Cristiano Machado ,ALERT
OOOBIIOOOOOOOO, Trânsito bom na Avenida Afonso Pena e há trechos com maior volume mas fluindo ,NOTIFICATION
OOOBIIOOOBIIOBIIOBII, Trânsito bom na Avenida Cristóvão Colombo no entorno da Praça da Liberdade na Avenida Bias Fortes na Praça Raul Soares ,NOTIFICATION
OOOOBIOOBIOOB, ATUALIZAÇÃO Via liberada na Cristiano Machado após a Pedro I FAMINAS sentido centro ,NOTIFICATION
OOOO,Inicio das operações do ,NOTIFICATION
OOOOOOOOOBII, Trânsito bom em todas as vias e acessos do Complexo da Lagoinha ,NOTIFICATION
OOBIOBOBOB, Lentidão na Teresa Cristina sentido centro entre Contorno e Ingaí ,ALERT
OOOOOOOOOBII, Trânsito bom em todas as vias e acessos do Complexo da Lagoinha ,NOTIFICATION
OOOOOBIOOBIOB, Veículo com problema mecânico na Antônio Carlos antes da Santa Rosa sentido bairro ,ALERT
OOOBIIOOOOOOOO, Trânsito bom na Avenida Afonso Pena e há trechos com maior volume mas fluindo ,NOTIFICATION
OOOOOOOOOOOOOOOBO, Serviço especial da linha 9033 para o jogo Atlético X Boa Esporte 21 2 no Independência site ,NOTIFICATION
OOBIIIOIIIIOB, Lentidão na Nossa Senhora do Carmo com Rio Grande do Norte sentido bairro ,ALERT
OOOBIIIOOOOOOOOOBIIIOBIII, Trânsito bom na Avenida NS do Carmo trechos maior volume mas fluindo bom no entorno da Praça M Goes Menicucci no Trevo do BH Shopping ,NOTIFICATION
OOO,Início das operações ,NOTIFICATION
OOOBOOOOOOOOOBOBIOOB, Trânsito bom na Amazonas e há trechos maior volume mas fluindo principalmente sentido bairro bom Via Expressa próximo Metro Gameleira ,NOTIFICATION
OOOBIIOOOOOOOOOBIOBIIIOOB, Trânsito bom na Avenida Silva Lobo e trechos com maior volume mas boa fluidez entre Tereza Cristina e Barão H de Melo Obras na Platina ,NOTIFICATION
OOOBIIOBIIOBIIIOBIIOBII, Trânsito bom na Avenida Carlos Luz na Avenida Pedro II no Elevado D Helena Greco na Avenida Bias Fortes na Praça Raul Soares ,NOTIFICATION
OOOOBIIOBOBI, ATUALIZAÇÃO Via liberada na Praça Rio Branco com Caetés sentido Mercado Central ,NOTIFICATION
OOOOBIIIOBIOOOOBI, Trânsito está lento na Conceição do Mato dentro com Carlos luz e fluindo bem na Carlos Luz ,ALERT
BIOOOOOOOOOOOBOOBOO, Avenida Amazonas Trânsito bom e trechos com maior volume mas fluindo principalmente sentido bairro até o Expominas segue intenso ,NOTIFICATION
OOBIOBIIIOOOB, Acidente no Viaduto Oeste com N Senhora de Fátima causa retenção sentido centro ,INCIDENT
OOOOBIIIOBOBOB, Trânsito está lento na N Senhora do Carmo sentido centro entre Uruguai e Contorno ,ALERT
OOBIOOOOOOOOBOOBIBII, Trânsito bom Cristiano Machado e há trechos intensos mas fluindo principalmente sentido bairro e entre B Vasconcelos S de Brito ,NOTIFICATION
OOOOOOOOO, Final das operações do Twitter BHTRANS Retornaremos na Segunda ,NOTIFICATION
OOBOOOOOOBIIIOB, Lentidão na Amazonas devido veículo com defeito sobre o Viaduto da Teresa Cristina sentido centro ,ALERT
OOOBII, Trânsito bom na Avenida Raja Gabaglia ,NOTIFICATION
OOOOOOOOOOOOOOBOBOOOO,Em função de obras de recapeamento e nivelamento de pista será realizada interdição da Contorno com Curitiba dia 23 1 site ,INCIDENT
OOOBIII, Trânsito bom no Trevo do BH Shopping ,NOTIFICATION
OOBIIOOOOOOOOOOOOO, Interdição na Avenida dos Andradas para obras da CEMIG no domingo dia 12 4 Saiba mais aqui site ,INCIDENT
OOOOBIOBIIIOB, Trânsito está lento na Cristiano Machado com José Cândido da Silveira sentido bairro ,ALERT
OOOBIOBIIIOB, Trânsito intenso na Cristiano Machado com José Cândido da Silveira sentido bairro ,ALERT
OOOBIIIOBIII,CORREÇÃO Acidente na Barão Homem de Melo com João Ladeira de Sena ,INCIDENT
OOOOBIOBOBIOB, Trânsito está lento na Cristiano Machado sentido centro entre Dom Leme e Túnel ,ALERT
OOOBII, Trânsito bom na Avenida Raja Gabaglia ,NOTIFICATION
OOOBIIIOOBOIIII, Trânsito intenso na Nossa Senhora do Carmo saída da Trincheira da Rio Grande do Norte ,ALERT
OOOBII, Trânsito bom na Avenida Raja Gabaglia ,NOTIFICATION
OOOOBIBIBIBIOB, Trânsito está lento na área Hospitalar F Sales Alfredo Balena B Monteiro e Brasil ,ALERT
OOOOBIIIOB, ATUALIZAÇÃO Via liberada no Viaduto Dona Helena Greco sentido bairro ,NOTIFICATION
OOBOBOOOO, Acidente na Guajajaras com Curitiba prejudica trânsito no local ,INCIDENT
OOOOOOOOOOBOOOO,Participe da 5ª Reunião do Observatório da Mobilidade Urbana de BH Inscrições pelo link site ,NOTIFICATION
OOBIOOOBOOBIOOBB, Acidente no Viaduto Leste prejudica trânsito sentido centro refletindo na Cristiano Machado até a Jacuí Ipiranga ,INCIDENT
OOOBII, Trânsito bom na Avenida Raja Gabaglia ,NOTIFICATION
OOOBOBOO, Atualização Acidente na Paraná com Caetés via liberada,INCIDENT
OOOBOBIOBOBOOBIOBOB, Trânsito intenso na Contorno entre Cristóvão Colombo e Curitiba sentido Assembléia e entre Tereza Cristina e Bahia sentido Savassi ,ALERT
OOOOOOOOOOOOOOOBO, Serviço especial da linha 9033 para o jogo Atlético X Boa Esporte 21 2 no Independência site ,NOTIFICATION
OOOOBIOBIOOOOOOOBOOOBIOB, Trânsito fluindo bem na Pedro I e Antônio Carlos com maior fluxo de veículos próximo a UFMG e próximo ao Viaduto B sentido centro ,NOTIFICATION
OOOOOBIOBIBIOOOO, Veículo com problema mecânico na Avenida Itaú com Avenida Ivaí Dom Bosco Reboque BHTRANS foi empenhado ,ALERT
OOOBIIOOOOOOOO, Trânsito bom na Avenida Afonso Pena e há trechos com maior volume mas fluindo ,NOTIFICATION
OOOOBOBOOOB, ATUALIZAÇÃO Via liberada na Amazonas com Limoeiro faixa central sentido centro ,NOTIFICATION
OOOOBIIIOB, Trânsito está lento no Viaduto Dona Helena greco sentido bairro ,ALERT
OOOBIIOBI, Trânsito fechado na Santa Rita Durão com Getúlio Vargas ,INCIDENT
OOOBOBOOBI, Trânsito intenso na Contorno com Andradas no sentido Área Hospitalar ,ALERT
OOBIIOOOBIOOOOOO, Interdição na Avenida do Contorno para obras do Boulevard Arrudas dia 16 1 Saiba mais site ,INCIDENT
OOOBOOOBIIIOBOOO, Trânsito intenso na Savassi com lentidão na Nossa Senhora do Carmo com Contorno nos dois sentidos ,ALERT
OOOOBIOOBIIIOB, ATUALIZAÇÃO Via liberada na Cristiano Machado após a José Cândido da Silveira sentido bairro ,NOTIFICATION
OOOBIIIOBIOBIOBI, Trânsito fechado na Rio Grande do Norte com Afonso Pena e Professor Morais com Afonso Pena ,INCIDENT
OOOBOOOOOOBIOBOOOBOB, Trânsito intenso na Raja com trecho de lentidão entre a 4ª RM e Contorno e com a Barão sentido centro ,ALERT
OOOOOBIOBII, Veículo com problema mecânico na São Paulo com Augusto de Lima ,ALERT
OOOBOBIOBIOBI, Trânsito intenso na Brasil entre Francisco Sales e Bernardo Monteiro sentido Afonso Pena ,ALERT
OOOOOOOO, Boa noite Final das operações do Twitter BHTRANS ,NOTIFICATION
OOOOOOOOOOOOO, Novo itinerário da linha 34 a partir de domingo dia 17 5 site ,NOTIFICATION
OOOBIIIOOOOOOOOOBIIIOBIII, Trânsito bom na Avenida NS do Carmo trechos maior volume mas fluindo bom no entorno da Praça M Goes Menicucci no Trevo do BH Shopping ,NOTIFICATION
OOOOBIOOBII, Trânsito está bom na Antônio Carlos e na Barragem da Pampulha ,NOTIFICATION
OOOBIIIIOBI, Ponto de retenção R Rio Grande do Sul com Avenida Amazonas ,INCIDENT
OOOBIOOBIIOB, Trânsito intenso na Cristiano Machado acesso ao Túnel da Lagoinha sentido centro ,ALERT
OOOBIIIOOOOOOOOOBIIIOBIII, Trânsito bom na Avenida NS do Carmo trechos maior volume mas fluindo bom no entorno da Praça M Goes Menicucci no Trevo do BH Shopping ,NOTIFICATION
OOOBIOBIIIOB, Trânsito intenso na Pedro II com Viaduto Dona Helena Greco sentido bairro ,ALERT
OOOOOOOOOBII, Trânsito bom em todas as vias e acessos do Complexo da Lagoinha ,NOTIFICATION
OOOOOOOOBIIOOOOOOOOO, Interdição parcial da pista exclusiva de ônibus no túnel da Lagoinha sábado e domingo dias 16 e 17 1 site ,INCIDENT
OOOOBIIOB, Trânsito está lento no Complexo da Lagoinha sentido centro ,ALERT
OOOOBIOOOOOOOBIOB, Trânsito é bom na Carlos Luz com maior fluxo de veículos com a Pedro II sentido centro ,NOTIFICATION
OOOOOOOBII, Trânsito intenso mas com boa fluidez na Barragem da Pampulha ,ALERT
OOOOOOOOOOOOOOOOO, Boa Noite Nossa equipe esteve no local e constatou a presença da CEMIG Local sem energia elétrica ,NOTIFICATION
OOOOOOOOOOOOOOOOBO,Confira as operações especiais de trânsito e transportes para o Carnaval 2016 em diferentes regiões de BH site ,NOTIFICATION
OOOBIIIOBOOOB, Atualização Liberada a Avenida NS do Carmo sentido centro na altura do Verdemar ,NOTIFICATION
OOBIOBOBOBI, Lentidão na Afonso Pena sentido Mangabeiras entre Caetés e Espírito Santo ,ALERT
OOBOBIOBIIOOBIOBOBOB, Lentidão na Amazonas com Afonso Pena sentido Praça Raul Soares e na Afonso Pena sentido Mangabeiras entre Caetés e Bahia ,ALERT
OOOBIIOBIIIOBIIOBII, Trânsito bom na Avenida Pedro II no Elevado D Helena Greco na Avenida Bias Fortes na Praça Raul Soares ,NOTIFICATION
OOOBOOOOOOBOOOBOOOB, Trânsito intenso na Raja com maior fluxo de veículos sentido bairro na altura do TJMG e com a Barão ,ALERT
OOOBII, Trânsito bom na Avenida Afonso Pena ,NOTIFICATION
OOOOBIOBIOB, Trânsito está lento na Pedro II com Carlos Luz sentido centro ,ALERT
OOOOBIIIOBOBOOBIIIOBII, Trânsito está lento na Nossa Senhora do Carmo com Contorno sentido bairro refletindo na rio Grande do Norte e na Cristóvão Colombo ,ALERT
OOOBOBOBIIIOOO, Trânsito intenso na Contorno entre Bahia e Nossa Senhora do Carmo nos dois sentidos ,ALERT
OOOOBIIIOOOOOOOOOBOBOOBOBIIOB,Trânsito fluindo bem na N S do Carmo com trecho de lentidão com a alça para a Raja sentido bairro e entre Ponteio e Tvo do Belvedere sentido Centro ,NOTIFICATION
OOOBIOBOOOOOOBOOBIOOBOB,Trânsito intenso na Cristiano Machado sentido centro com trechos de lentidão entre a Rotatória e o Minas Shopping e entre Silveira e Túnel ,ALERT
OOOBIIOBIOB, Trânsito intenso na Prudente de Morais com Joaquim Murtinho sentido bairro ,ALERT
OOOBIBBIBOBOOOOOOBOOBIOOOB, Trânsito bom na Teresa Cristina JK Silva Lobo Barão e Raja com maior fluxo de veículos na Raja próximo ao Madre Teresa e próximo a Contorno ,NOTIFICATION
OOBIIOOOOOOOOOOBIIOOOBIII, Trânsito bom NS do Carmo e trechos com maior volume mas boa fluidez bom no trevo BH Shopping no entorno da Praça M Goes Menicucci ,NOTIFICATION
OOOOOOBIOBOBBIIOOOOO, Um incêndio provoca a interdição da Rua Angola entre Aiuroca e Amanhece Bairro São Paulo Trânsito foi desviado no local ,INCIDENT
OOOOOOOOOOOBOOOOO, Na BHTRANS reclamações sobre ônibus podem ser registradas via tel156 presencialmente Buritis e BHResolve ou no portal ,NOTIFICATION
OOOOB, Trânsito é bom na Amazonas ,NOTIFICATION
OOOBIIOOOOOOOO, Trânsito bom na Avenida do Contorno e há trechos com maior volume mas fluindo ,NOTIFICATION
OOOBIIOOOOOOOO, Trânsito bom na Avenida do Contorno e trechos com maior volume mas boa fluidez ,NOTIFICATION
OOOOOOOOOOOOBIOBOOOOBIIII, Trânsito bom e trecho maior volume mas fluindo na pista mista da Carlos Luz sentido bairro a partir do acesso R C do Mato Dentro ,NOTIFICATION
OOOOBIOBIIOOBIOB, Trânsito está lento na Via Expressa com Conde Pereira Carneiro Alt do Coração Eucarístico sentido centro ,ALERT
OOOBII, Trânsito bom na Avenida do Contorno ,NOTIFICATION
OOOOOOOOOOOBOOOOOOOO, Boa Noite Não Estava acontecendo uma blitz da PM próximo à Colômbia com o término o trânsito começa a melhorar ,NOTIFICATION
OOOOBIIIOOBIIOO, Queda de árvore na Otacílio Negrão de Lima após a Igreja da Pampulha Via interditada ,INCIDENT
OOBIOOBIOOBOOO, Acidente na Avenida Portugal próximo à Rua Irlanda no sentido centro SAMU no local ,INCIDENT
